<svg xmlns="http://www.w3.org/2000/svg" xmlns:xlink="http://www.w3.org/1999/xlink" xmlns:ifc="http://www.ifcopenshell.org/ns" width="187.5mm" height="94.875mm" viewBox="0 0 187.5 94.875">
    <defs>
        <marker id="arrowend" markerWidth="10" markerHeight="7" refX="10" refY="3.5" orient="auto">
          <polygon points="0 0, 10 3.5, 0 7"/>
        </marker>
        <marker id="arrowstart" markerWidth="10" markerHeight="7" refX="0" refY="3.5" orient="auto">
          <polygon points="10 0, 0 3.5, 10 7"/>
        </marker>
    </defs>
    <g ifc:name="Elevation MY STOREY PLAN" class="section" ifc:plane="[[1.000000,0.000000,0.000000,0.000000],[0.000000,1.000000,0.000000,0.000000],[0.000000,0.000000,1.000000,1.600000],[0.000000,0.000000,0.000000,1.000000]]" ifc:matrix3="[[20.833334,0.000000,55.650044],[0.000000,20.833334,66.487524],[0.000000,0.000000,1.000000]]">
        <g class="projection">
            <path d="M57.7334,16.9771 L57.7334,64.4042"/>
            <path d="M55.65,14.8938 L57.7334,16.9771"/>
            <path d="M55.65,64.4042 L55.65,14.8938"/>
            <path d="M57.7334,64.4042 L55.65,64.4042"/>
            <path d="M57.7334,16.9771 L55.65,14.8938"/>
            <path d="M130.837,16.9771 L57.7334,16.9771"/>
            <path d="M132.921,14.8938 L130.837,16.9771"/>
            <path d="M55.65,14.8938 L132.921,14.8938"/>
            <path d="M130.837,16.9771 L132.921,14.8938"/>
            <path d="M130.837,64.4042 L130.837,16.9771"/>
            <path d="M132.921,66.4875 L130.837,64.4042"/>
            <path d="M132.921,14.8938 L132.921,66.4875"/>
            <path d="M105.187,66.4875 L55.65,66.4875"/>
            <path d="M105.187,66.4875 L105.187,64.4042"/>
            <path d="M55.65,64.4042 L105.187,64.4042"/>
            <path d="M55.65,66.4875 L55.65,64.4042"/>
            <path d="M130.837,64.4042 L132.921,66.4875"/>
            <path d="M126.229,64.4042 L130.837,64.4042"/>
            <path d="M126.229,64.4042 L126.229,66.4875"/>
            <path d="M132.921,66.4875 L126.229,66.4875"/>
            <path d="M130.837,16.9771 L132.921,14.8938"/>
            <path d="M130.837,64.4042 L130.837,16.9771"/>
            <path d="M132.921,66.4875 L130.837,64.4042"/>
            <path d="M132.921,14.8938 L132.921,66.4875"/>
            <path d="M21.8867,66.4875 L1.05336,66.4875"/>
            <path d="M21.8867,63.9078 L21.8867,66.4875"/>
            <path d="M1.05336,63.9078 L21.8867,63.9078"/>
            <path d="M1.05336,66.4875 L1.05336,63.9078"/>
            <path d="M21.8867,60.1375 L1.05336,60.1375"/>
            <path d="M21.8867,56.3011 L21.8867,60.1375"/>
            <path d="M1.05336,56.3011 L21.8867,56.3011"/>
            <path d="M1.05336,60.1375 L1.05336,56.3011"/>
            <path d="M106.289,61.9024 L106.125,64.4042"/>
            <path d="M106.778,59.4435 L106.289,61.9024"/>
            <path d="M107.584,57.0694 L106.778,59.4435"/>
            <path d="M108.693,54.8209 L107.584,57.0694"/>
            <path d="M110.086,52.7363 L108.693,54.8209"/>
            <path d="M111.739,50.8513 L110.086,52.7363"/>
            <path d="M113.624,49.1983 L111.739,50.8513"/>
            <path d="M115.708,47.8054 L113.624,49.1983"/>
            <path d="M117.957,46.6965 L115.708,47.8054"/>
            <path d="M120.331,45.8906 L117.957,46.6965"/>
            <path d="M122.79,45.4015 L120.331,45.8906"/>
            <path d="M125.292,45.2375 L122.79,45.4015"/>
            <path d="M125.083,66.4875 L126.229,66.4875"/>
            <path d="M125.396,64.4042 L125.396,65.3417"/>
            <path d="M126.229,64.4042 L125.396,64.4042"/>
            <path d="M106.021,65.3417 L106.333,65.3417"/>
            <path d="M106.021,64.4042 L106.021,65.3417"/>
            <path d="M105.187,64.4042 L106.021,64.4042"/>
            <path d="M106.333,65.3417 L106.333,66.4875"/>
            <path d="M125.292,45.2375 L124.458,45.2375"/>
            <path d="M125.292,64.4042 L125.292,45.2375"/>
            <path d="M125.292,64.4042 L124.458,64.4042"/>
            <path d="M106.333,66.4875 L105.187,66.4875"/>
            <path d="M124.458,45.2375 L124.458,64.4042"/>
            <path d="M125.083,65.3417 L125.083,66.4875"/>
            <path d="M125.396,65.3417 L125.083,65.3417"/>
        </g>
    <g class="projection">
            <path d="M57.7334,16.9771 L57.7334,64.4042"/>
            <path d="M55.65,14.8938 L57.7334,16.9771"/>
            <path d="M55.65,64.4042 L55.65,14.8938"/>
            <path d="M57.7334,64.4042 L55.65,64.4042"/>
            <path d="M57.7334,16.9771 L55.65,14.8938"/>
            <path d="M130.837,16.9771 L57.7334,16.9771"/>
            <path d="M132.921,14.8938 L130.837,16.9771"/>
            <path d="M55.65,14.8938 L132.921,14.8938"/>
            <path d="M130.837,16.9771 L132.921,14.8938"/>
            <path d="M130.837,64.4042 L130.837,16.9771"/>
            <path d="M132.921,66.4875 L130.837,64.4042"/>
            <path d="M132.921,14.8938 L132.921,66.4875"/>
            <path d="M105.187,66.4875 L55.65,66.4875"/>
            <path d="M105.187,66.4875 L105.187,64.4042"/>
            <path d="M55.65,64.4042 L105.187,64.4042"/>
            <path d="M55.65,66.4875 L55.65,64.4042"/>
            <path d="M130.837,64.4042 L132.921,66.4875"/>
            <path d="M126.229,64.4042 L130.837,64.4042"/>
            <path d="M126.229,64.4042 L126.229,66.4875"/>
            <path d="M132.921,66.4875 L126.229,66.4875"/>
            <path d="M130.837,16.9771 L132.921,14.8938"/>
            <path d="M130.837,64.4042 L130.837,16.9771"/>
            <path d="M132.921,66.4875 L130.837,64.4042"/>
            <path d="M132.921,14.8938 L132.921,66.4875"/>
            <path d="M21.8867,66.4875 L1.05336,66.4875"/>
            <path d="M21.8867,63.9078 L21.8867,66.4875"/>
            <path d="M1.05336,63.9078 L21.8867,63.9078"/>
            <path d="M1.05336,66.4875 L1.05336,63.9078"/>
            <path d="M21.8867,60.1375 L1.05336,60.1375"/>
            <path d="M21.8867,56.3011 L21.8867,60.1375"/>
            <path d="M1.05336,56.3011 L21.8867,56.3011"/>
            <path d="M1.05336,60.1375 L1.05336,56.3011"/>
            <path d="M106.289,61.9024 L106.125,64.4042"/>
            <path d="M106.778,59.4435 L106.289,61.9024"/>
            <path d="M107.584,57.0694 L106.778,59.4435"/>
            <path d="M108.693,54.8209 L107.584,57.0694"/>
            <path d="M110.086,52.7363 L108.693,54.8209"/>
            <path d="M111.739,50.8513 L110.086,52.7363"/>
            <path d="M113.624,49.1983 L111.739,50.8513"/>
            <path d="M115.708,47.8054 L113.624,49.1983"/>
            <path d="M117.957,46.6965 L115.708,47.8054"/>
            <path d="M120.331,45.8906 L117.957,46.6965"/>
            <path d="M122.79,45.4015 L120.331,45.8906"/>
            <path d="M125.292,45.2375 L122.79,45.4015"/>
            <path d="M125.083,66.4875 L126.229,66.4875"/>
            <path d="M125.396,64.4042 L125.396,65.3417"/>
            <path d="M126.229,64.4042 L125.396,64.4042"/>
            <path d="M106.021,65.3417 L106.333,65.3417"/>
            <path d="M106.021,64.4042 L106.021,65.3417"/>
            <path d="M105.187,64.4042 L106.021,64.4042"/>
            <path d="M106.333,65.3417 L106.333,66.4875"/>
            <path d="M125.292,45.2375 L124.458,45.2375"/>
            <path d="M125.292,64.4042 L125.292,45.2375"/>
            <path d="M125.292,64.4042 L124.458,64.4042"/>
            <path d="M106.333,66.4875 L105.187,66.4875"/>
            <path d="M124.458,45.2375 L124.458,64.4042"/>
            <path d="M125.083,65.3417 L125.083,66.4875"/>
            <path d="M125.396,65.3417 L125.083,65.3417"/>
        </g>
        <g class="cut 2hrkoFOWf1xB3JevzpiuJ3 IfcWall 23GHTeOxT0DPVE8e$sZCFv 0xs3_ZLl17Lwg0VlQGjdRW 3FSOwsjPj5IxwW7larL68S 1fR5GKW0nBy8zpF0MLhGDC 2o3V$4fXnDpBWjreoMP9UM 3EKKv6_MnFRvwul5lE3LCF material-poche"><path d="M55.6,64.4 L55.6,66.5 L105.2,66.5 L105.2,64.4 L57.7,64.4 L57.7,17.0 L130.8,17.0 L130.8,64.4 L126.2,64.4 L126.2,66.5 L132.9,66.5 L132.9,14.9 L55.6,14.9 Z"/></g><g class="cut 2hrkoFOWf1xB3JevzpiuJ3 IfcWall 23GHTeOxT0DPVE8e$sZCFv 0xs3_ZLl17Lwg0VlQGjdRW 3FSOwsjPj5IxwW7larL68S 1fR5GKW0nBy8zpF0MLhGDC 2o3V$4fXnDpBWjreoMP9UM 3EKKv6_MnFRvwul5lE3LCF material-poche"><path d="M1.1,56.3 L1.1,60.1 L21.9,60.1 L21.9,56.3 Z"/></g><g class="cut 2hrkoFOWf1xB3JevzpiuJ3 IfcWall 23GHTeOxT0DPVE8e$sZCFv 0xs3_ZLl17Lwg0VlQGjdRW 3FSOwsjPj5IxwW7larL68S 1fR5GKW0nBy8zpF0MLhGDC 2o3V$4fXnDpBWjreoMP9UM 3EKKv6_MnFRvwul5lE3LCF material-poche"><path d="M1.1,63.9 L1.1,66.5 L21.9,66.5 L21.9,63.9 Z"/></g></g>
</svg>